<svg version="1.1" xmlns="http://www.w3.org/2000/svg" x="0px" y="0px"
	 viewBox="0 0 384 384" style="enable-background:new 0 0 384 384;" xml:space="preserve">
	<g fill="#f5a63c">
		<circle cx="192" cy="42.667" r="42.667"/>
		<circle cx="192" cy="192" r="42.667"/>
		<circle cx="192" cy="341.333" r="42.667"/>
	</g>
</svg>
